{
  "name": "pdemon-duplicacy",
  "version": "0.1.0",
  "author": "Phil DeMonaco",
  "summary": "Module to manage duplicacy backups.",
  "license": "MIT",
  "source": "https://github.com/pdemonaco/pdemon-duplicacy",
  "project_page": "https://github.com/pdemonaco/pdemon-duplicacy",
  "issues_url": "https://github.com/pdemonaco/pdemon-duplicacy/issues",
  "dependencies": [
    {
      "name": "puppetlabs/stdlib",
      "version_requirement": ">= 5.0 < 6.0.0"
    },
    {
      "name": "puppetlabs/cron_core",
      "version_requirement": ">= 1.0.1 < 2.0.0"
    }
  ],
  "operatingsystem_support": [
    {
      "operatingsystem": "Gentoo"
    }
  ],
  "requirements": [
    {
      "name": "puppet",
      "version_requirement": ">= 5.0.0 < 7.0.0"
    }
  ],
  "tags": [
    "duplicacy",
    "backups"
  ],
  "pdk-version": "1.9.0",
  "template-url": "file:///opt/puppetlabs/pdk/share/cache/pdk-templates.git",
  "template-ref": "1.9.0-0-g7281db5"
}
